^C:\USERS\GODMU\DOCUMENTS\CS235\U09EX\OVERLOAD\X64\DEBUG\MAIN.OBJ|C:\USERS\GODMU\DOCUMENTS\CS235\U09EX\OVERLOAD\X64\DEBUG\PRODUCT.OBJ
C:\USERS\GODMU\DOCUMENTS\CS235\U09EX\X64\DEBUG\OVERLOAD.EXE
C:\USERS\GODMU\DOCUMENTS\CS235\U09EX\OVERLOAD\X64\DEBUG\OVERLOAD.ILK
C:\USERS\GODMU\DOCUMENTS\CS235\U09EX\X64\DEBUG\OVERLOAD.PDB
